{
  "input":[
    {
      "name" : "kafkaDf",
      "type": "kafka",
      "srcPath": "127.0.0.1"

    },
    {
      "name" : "folDf",
      "type": "amazonS3",
      "srcPath": "s3://myntra-temp/fact_order_live/y=2018/m=11/d=13/h=16",
      "duration": 15
    },
    {
      "name" : "dimProductDf",
      "type": "batch",
      "srcPath": "s3://madlytics/udpAggregates/sources/bidb.dim_product/"
    }



  ]

}